"acronym","name","slug","color","country","hq_city","address","lat","lon","creation_date","url","wikipedia_url","ratio","portfolio","employees","description"
"DFC","U.S. International Development Finance Corporation","opic","#233165","USA","Washington, D.C.","1100 New York Avenue, NW, Washington, DC 20527","38.89624544","-77.04002702","2019-12-20","https://dfc.gov","https://en.wikipedia.org/wiki/U.S._International_Development_Finance_Corporation","83.07","22844","275",""
"FMO","Financierings-Maatschappij voor Ontwikkelingslanden N. V.","fmo","#3bc9d6","Netherlands","The Hague","Anna van Saksenlaan 71, 2593 HW, The Hague","52.08123","4.34648","1970-07-08","https://www.fmo.nl/","https://en.wikipedia.org/wiki/FMO_(Netherlands)","22.68","10888.64","480",""
"IFC","International Finance Corporation","ifc","#ffbf5c","USA","Washington, D.C.","2121 Pennsylvania Avenue, NW Washington, DC 20433","38.9020848","-77.0476071","1956-07-20","http://www.ifc.org/","https://en.wikipedia.org/wiki/International_Finance_Corporation","18.72","73383","3921","Description for IFC"
"DEG","Deutsche Investitions- und Entwicklungsgesellschaft","deg","#cf5060","Germany","Cologne","Kämmergasse 22, 50676 Köln","50.93375","6.95272","1962-09-14","https://www.deginvest.de/International-financing/DEG/","https://en.wikipedia.org/wiki/German_Investment_Corporation","15.13","9484.46","627",""
"PROPARCO","Promotion et Participation pour la Coopération Économique","proparco","#4461a8","France","Paris","151, rue Saint Honoré, 75001 Paris","48.8622229","2.3388071","","http://www.proparco.fr/","https://en.wikipedia.org/wiki/Proparco","18.3","5673.43","310",""
"CDC","DC Group plc","cdc","#f5a997","United Kingdom","London","123 Victoria Street, London SW1E 6DE","51.49687","-0.13907","","http://www.cdcgroup.com/","https://en.wikipedia.org/wiki/CDC_Group","20.2","6745.54","334",""
"CDB","China Development Bank","cdb","#ff6b39","China","Beijing","No.18 Fuxingmennei Street, Xicheng District, Beijing","39.91776","116.3629","","http://www.cdb.com.cn/","https://en.wikipedia.org/wiki/China_Development_Bank","270.83","2574786.74","9507",""
"AIIB","Asian Infrastructure Investment Bank","aiib","#98afb1","China","Beijing","Tower A, Asia Financial Center, No.1 Tianchen East Road, Chaoyang District, Beijing 100101","39.9188101","116.4566553","2015-12-25","http://www.aiib.org/","https://en.wikipedia.org/wiki/Asian_Infrastructure_Investment_Bank","","18972.61","",""
"JBIC","Japan Bank for International Cooperation","jbic","#c5a779","Japan","Tokyo","4-1 Ohtemachi 1-chome, Chiyoda-ku, Tokyo 100-8144","35.6904933","139.7583313","1999-10-01","https://www.jbic.go.jp/en/","https://en.wikipedia.org/wiki/JBIC","225.45","169541","752",""