"name","year","amount","color"
"DFC","2013","0","#233165"
"DFC","2014","0","#233165"
"DFC","2015","0","#233165"
"DFC","2016","0","#233165"
"DFC","2017","0","#233165"
"FMO","2013","2026.29","#3bc9d6"
"FMO","2014","2270.15","#3bc9d6"
"FMO","2015","1665.42","#3bc9d6"
"FMO","2016","1599.41","#3bc9d6"
"FMO","2017","1746.06","#3bc9d6"
"IFC","2013","9869.15","#ffbf5c"
"IFC","2014","10372.23","#ffbf5c"
"IFC","2015","9246.75","#ffbf5c"
"IFC","2016","10692.94","#ffbf5c"
"IFC","2017","11471.66","#ffbf5c"
"DEG","2013","0","#cf5060"
"DEG","2014","0","#cf5060"
"DEG","2015","1034.7","#cf5060"
"DEG","2016","1272.67","#cf5060"
"DEG","2017","1734.71","#cf5060"
"PROPARCO","2013","1187.21","#4461a8"
"PROPARCO","2014","1398","#4461a8"
"PROPARCO","2015","1069.02","#4461a8"
"PROPARCO","2016","988.56","#4461a8"
"PROPARCO","2017","985.51","#4461a8"
"CDC","2013","0","#f5a997"
"CDC","2014","0","#f5a997"
"CDC","2015","0","#f5a997"
"CDC","2016","0","#f5a997"
"CDC","2017","0","#f5a997"
"CDB","2013","0","#ff6b39"
"CDB","2014","0","#ff6b39"
"CDB","2015","0","#ff6b39"
"CDB","2016","0","#ff6b39"
"CDB","2017","0","#ff6b39"
"AIIB","2013","0","#98afb1"
"AIIB","2014","0","#98afb1"
"AIIB","2015","0","#98afb1"
"AIIB","2016","1691","#98afb1"
"AIIB","2017","2589.6","#98afb1"
"JBIC","2013","12517.67","#c5a779"
"JBIC","2014","19492.7","#c5a779"
"JBIC","2015","5098.54","#c5a779"
"JBIC","2016","4996.9","#c5a779"
"JBIC","2017","6632.56","#c5a779"