<?xml version="1.0" encoding="UTF-8" standalone="no"?>
<!-- Created with Inkscape (http://www.inkscape.org/) -->

<svg
   xmlns:dc="http://purl.org/dc/elements/1.1/"
   xmlns:cc="http://creativecommons.org/ns#"
   xmlns:rdf="http://www.w3.org/1999/02/22-rdf-syntax-ns#"
   xmlns:svg="http://www.w3.org/2000/svg"
   xmlns="http://www.w3.org/2000/svg"
   xmlns:sodipodi="http://sodipodi.sourceforge.net/DTD/sodipodi-0.dtd"
   xmlns:inkscape="http://www.inkscape.org/namespaces/inkscape"
   width="2.156251in"
   height="0.74475199in"
   viewBox="0 0 54.768776 18.9167"
   version="1.1"
   id="svg2185"
   sodipodi:docname="aid2growth-logo_white.svg"
   inkscape:export-filename="aid2growth-logo.png"
   inkscape:export-xdpi="90"
   inkscape:export-ydpi="90"
   inkscape:version="0.92.5 (2060ec1f9f, 2020-04-08)">
  <metadata
     id="metadata1097">
    <rdf:RDF>
      <cc:Work
         rdf:about="">
        <dc:format>image/svg+xml</dc:format>
        <dc:type
           rdf:resource="http://purl.org/dc/dcmitype/StillImage" />
        <dc:title></dc:title>
      </cc:Work>
    </rdf:RDF>
  </metadata>
  <defs
     id="defs1095" />
  <sodipodi:namedview
     pagecolor="#ffffff"
     bordercolor="#666666"
     borderopacity="1"
     objecttolerance="10"
     gridtolerance="10"
     guidetolerance="10"
     inkscape:pageopacity="0"
     inkscape:pageshadow="2"
     inkscape:window-width="1918"
     inkscape:window-height="1038"
     id="namedview1093"
     showgrid="false"
     inkscape:zoom="1.8792262"
     inkscape:cx="103.50005"
     inkscape:cy="35.748096"
     inkscape:window-x="0"
     inkscape:window-y="20"
     inkscape:window-maximized="0"
     inkscape:current-layer="svg2185" />
  <path
     inkscape:connector-curvature="0"
     id="path3427"
     transform="scale(0.26458333)"
     d="m 83.480469,0 c -1.851792,0 -3.53422,0.43335447 -5.044922,1.3007812 -1.510677,0.8674268 -2.704853,2.1302149 -3.582031,3.7871094 -0.877153,1.6568693 -1.314454,3.6157878 -1.314454,5.8769534 0,2.300119 0.447095,4.278652 1.34375,5.935547 0.896656,1.647143 2.100626,2.900137 3.611329,3.757812 1.510677,0.847925 3.173515,1.271485 4.986328,1.271485 1.998009,0 3.747095,-0.439229 5.248047,-1.316407 1.510677,-0.877178 2.675444,-2.100763 3.49414,-3.669922 0.818696,-1.569159 1.228516,-3.357499 1.228516,-5.365234 0,-0.126715 -0.0055,-0.311034 -0.01563,-0.554687 -0.0091,-0.253304 -0.02281,-0.476852 -0.04297,-0.671876 h -7.574219 v 3.06836 h 3.333985 c -0.302136,1.588661 -0.915888,2.782812 -1.841797,3.582031 -0.916158,0.789443 -2.05739,1.185547 -3.421875,1.185547 -2.017487,0 -3.546971,-0.633367 -4.589844,-1.900391 -1.033121,-1.276774 -1.550781,-3.051374 -1.550781,-5.322265 0,-1.4814491 0.225475,-2.7638514 0.673828,-3.8457034 0.448328,-1.0916031 1.120923,-1.9289033 2.017578,-2.5136718 0.89668,-0.5952001 1.996731,-0.8834388 3.302735,-0.8632813 1.306003,0.00975 2.398212,0.3764216 3.27539,1.0976563 0.877178,0.7114834 1.510545,1.6997732 1.900391,2.9667968 L 92.982422,7.2226562 C 92.446359,4.8737806 91.389432,3.085466 89.810547,1.8574219 88.241363,0.61962659 86.13148,0 83.480469,0 Z m 43.494141,0 c -2.07597,0 -3.88392,0.45884251 -5.42383,1.375 -1.53993,0.9064063 -2.72429,2.1868555 -3.55273,3.84375 -0.8187,1.6568693 -1.22852,3.5726386 -1.22852,5.746094 0,2.17343 0.40982,4.089224 1.22852,5.746094 0.82844,1.656894 2.0128,2.943217 3.55273,3.859374 1.53991,0.906407 3.34786,1.359376 5.42383,1.359376 2.07599,0 3.88392,-0.452969 5.42383,-1.359376 1.53993,-0.916157 2.71841,-2.20248 3.53711,-3.859374 0.82844,-1.65687 1.24414,-3.572664 1.24414,-5.746094 0,-2.1734554 -0.4157,-4.0892247 -1.24414,-5.746094 C 135.11685,3.5618555 133.93837,2.2814063 132.39844,1.375 130.85853,0.45884251 129.0506,0 126.97461,0 Z m 27.76953,0.4375 -4.18164,0.03125 -3.94727,14.443359 -3.94726,-14.47265588 h -4.18164 l 6.16992,21.05078088 h 3.91797 l 4.07812,-14.2109371 4.08008,14.2109371 h 3.91797 L 166.81836,0.4375 h -4.17969 l -3.94726,14.472656 z M 97.351562,0.439453 v 21.050781 h 3.976558 v -7.134765 h 4.42969 l 3.46485,7.134765 h 4.50195 l -3.80078,-7.80664 c 1.16956,-0.536038 2.04804,-1.349803 2.63281,-2.441406 0.58479,-1.091604 0.87695,-2.3720528 0.87695,-3.8437505 0,-1.8517921 -0.45296,-3.3832299 -1.35937,-4.5917969 -0.89668,-1.2182929 -2.25752,-1.9673669 -4.08008,-2.24999998 -0.49706,-0.0781102 -1.0814,-0.1171875 -1.75391,-0.1171875 z m 71.031248,0 v 3.7128908 h 6.63672 V 21.490234 h 3.97656 V 4.1523438 h 6.63868 V 0.43945312 Z m 20.57227,0 v 21.050781 h 3.97656 v -8.683593 h 9.41406 v 8.683593 h 3.97657 V 0.43945312 H 202.3457 V 9.09375 h -9.41406 V 0.43945312 Z m -61.98047,3.3027345 c 1.96878,0.029253 3.45904,0.6822096 4.47266,1.9589844 1.01361,1.2670236 1.52148,3.0220088 1.52148,5.2636721 0,1.481423 -0.22355,2.767772 -0.67187,3.859375 -0.44833,1.081852 -1.1209,1.919152 -2.01758,2.513672 -0.89666,0.585448 -1.99866,0.869766 -3.30469,0.849609 -1.96876,-0.02923 -3.46099,-0.678264 -4.47461,-1.945312 -1.01362,-1.27675 -1.51953,-3.035681 -1.51953,-5.277344 0,-1.4814491 0.22355,-2.7638514 0.67187,-3.8457034 0.44833,-1.0916031 1.1209,-1.9289033 2.01758,-2.5136718 0.89666,-0.5952001 1.99869,-0.8834388 3.30469,-0.8632813 z m -25.64649,0.4101563 h 4.73633 c 0.55554,0 1.00459,0.048973 1.34571,0.1464843 0.73098,0.1949229 1.24669,0.5890741 1.54882,1.1835938 0.31187,0.5847937 0.46875,1.2220814 0.46875,1.9140625 0,0.6920063 -0.15688,1.3371209 -0.46875,1.9316406 -0.30213,0.5846929 -0.81784,0.972945 -1.54882,1.167969 -0.34112,0.09751 -0.79017,0.146484 -1.34571,0.146484 h -4.73633 z M 60.542969,15.035156 c -1.4912,0 -2.806957,0.286311 -3.947266,0.861328 -1.140334,0.575043 -2.026657,1.394682 -2.660156,2.457032 C 53.311774,19.415865 53,20.659064 53,22.082031 h 4.09375 c -0.01948,-0.584768 0.111898,-1.131862 0.394531,-1.638672 0.282659,-0.506809 0.682684,-0.910755 1.199219,-1.21289 0.526312,-0.302136 1.114577,-0.453125 1.767578,-0.453125 0.633525,0 1.190413,0.147069 1.667969,0.439453 0.487332,0.282633 0.861844,0.676784 1.125,1.183594 0.263156,0.497083 0.394531,1.067687 0.394531,1.710937 0,0.994142 -0.603933,2.025581 -1.8125,3.097656 L 53,33.046875 v 3.449219 h 14.736328 v -3.742188 h -8.566406 l 4.707031,-4.123047 c 1.042873,-0.906431 1.807615,-1.61823 2.294922,-2.134765 0.487332,-0.526312 0.867743,-1.126324 1.140625,-1.798828 0.282658,-0.68223 0.423828,-1.523451 0.423828,-2.527344 0,-1.393714 -0.311774,-2.632992 -0.935547,-3.714844 -0.623773,-1.081852 -1.480687,-1.919152 -2.572265,-2.513672 -1.091604,-0.604271 -2.321062,-0.90625 -3.685547,-0.90625 z M 6.4316406,30.443359 0,51.496094 h 4.09375 l 1.3300781,-4.386719 h 7.9238279 l 1.359375,4.386719 h 4.09375 L 12.367188,30.443359 Z m 15.3105474,0 V 51.496094 H 25.71875 V 30.443359 Z m 8.388671,0 v 21.052735 h 6.8125 c 1.033122,0 1.870397,-0.03933 2.513672,-0.117188 1.647118,-0.194923 3.064842,-0.773393 4.253907,-1.738281 1.19879,-0.964888 2.110601,-2.198268 2.734374,-3.699219 0.623774,-1.510677 0.935547,-3.167616 0.935547,-4.970703 0,-1.803061 -0.311773,-3.45608 -0.935547,-4.957031 -0.623773,-1.510677 -1.535584,-2.748003 -2.734374,-3.712891 -1.189065,-0.964787 -2.606789,-1.545211 -4.253907,-1.740234 -0.643275,-0.07811 -1.48055,-0.117188 -2.513672,-0.117188 z M 9.3574219,34.171875 12.207031,43.396484 H 6.5488281 Z M 34.164062,34.1875 h 2.779297 c 1.033122,0 1.791965,0.04702 2.279297,0.144531 0.857676,0.165695 1.579294,0.571594 2.164063,1.214844 0.594545,0.643276 1.037694,1.437427 1.330078,2.382813 0.302135,0.945411 0.453125,1.959188 0.453125,3.041015 0,1.052624 -0.145116,2.050708 -0.4375,2.996094 -0.282658,0.93566 -0.721887,1.735685 -1.316406,2.398437 -0.584794,0.653052 -1.316207,1.066818 -2.19336,1.242188 -0.487332,0.09751 -1.246175,0.146484 -2.279297,0.146484 h -2.779297 z"
     style="fill:#ffffff;fill-opacity:1;stroke:none" />
  <path
     id="barcharts"
     d="m 241.1073,112.47612 v 11.90625 h 34.925 v -11.90625 z m -5.82083,3.96875 v 7.9375 h 3.96875 v -7.9375 z m -14.02292,3.96875 v 3.96875 h 12.17083 v -3.96875 z"
     style="opacity:1;fill:#ffffff;fill-opacity:1;stroke:none"
     inkscape:connector-curvature="0"
     transform="translate(-221.26355,-105.4657)" />
</svg>
